…
```r
gapminder <- gapminder
```

```r
gapminder_tidy <- janitor::clean_names(gapminder)
gapminder_tidy
```

```
## # A tibble: 1,704 x 6
##    country     continent  year life_exp      pop gdp_percap
##    <fct>       <fct>     <int>    <dbl>    <int>      <dbl>
##  1 Afghanistan Asia       1952     28.8  8425333       779.
##  2 Afghanistan Asia       1957     30.3  9240934       821.
##  3 Afghanistan Asia       1962     32.0 10267083       853.
##  4 Afghanistan Asia       1967     34.0 11537966       836.
##  5 Afghanistan Asia       1972     36.1 13079460       740.
##  6 Afghanistan Asia       1977     38.4 14880372       786.
##  7 Afghanistan Asia       1982     39.9 12881816       978.
##  8 Afghanistan Asia       1987     40.8 13867957       852.
##  9 Afghanistan Asia       1992     41.7 16317921       649.
## 10 Afghanistan Asia       1997     41.8 22227415       635.
## # ... with 1,694 more rows
```
…
```r
gapminder_tidyer <- gapminder_tidy %>%
  group_by(year) %>%
  mutate(avg_life_exp=mean(life_exp))
gapminder_tidyer
```

```
## # A tibble: 1,704 x 7
## # Groups:   year [12]
##    country     continent  year life_exp      pop gdp_percap avg_life_exp
##    <fct>       <fct>     <int>    <dbl>    <int>      <dbl>        <dbl>
##  1 Afghanistan Asia       1952     28.8  8425333       779.         49.1
##  2 Afghanistan Asia       1957     30.3  9240934       821.         51.5
##  3 Afghanistan Asia       1962     32.0 10267083       853.         53.6
##  4 Afghanistan Asia       1967     34.0 11537966       836.         55.7
##  5 Afghanistan Asia       1972     36.1 13079460       740.         57.6
##  6 Afghanistan Asia       1977     38.4 14880372       786.         59.6
##  7 Afghanistan Asia       1982     39.9 12881816       978.         61.5
##  8 Afghanistan Asia       1987     40.8 13867957       852.         63.2
##  9 Afghanistan Asia       1992     41.7 16317921       649.         64.2
## 10 Afghanistan Asia       1997     41.8 22227415       635.         65.0
## # ... with 1,694 more rows
```
…
**4. Your answer above doesn't tell the whole story since life expectancy varies by region. Make a summary that shows the min, mean, and max life expectancy by continent for all years represented in the data.**

```r
gapminder_tidy %>% 
  group_by(year, continent) %>% 
  summarise(cont_life_exp=mean(life_exp))
```

```
## `summarise()` has grouped output by 'year'. You can override using the `.groups` argument.
```

```
## # A tibble: 60 x 3
## # Groups:   year [12]
##     year continent cont_life_exp
##    <int> <fct>             <dbl>
##  1  1952 Africa             39.1
##  2  1952 Americas           53.3
##  3  1952 Asia               46.3
##  4  1952 Europe             64.4
##  5  1952 Oceania            69.3
##  6  1957 Africa             41.3
##  7  1957 Americas           56.0
##  8  1957 Asia               49.3
##  9  1957 Europe             66.7
## 10  1957 Oceania            70.3
## # ... with 50 more rows
```
…
