…
```r
population
```

```
## # A tibble: 195 x 302
##    country `1800` `1801` `1802` `1803` `1804` `1805` `1806` `1807` `1808` `1809`
##    <chr>    <dbl>  <dbl>  <dbl>  <dbl>  <dbl>  <dbl>  <dbl>  <dbl>  <dbl>  <dbl>
##  1 Afghan… 3.28e6 3.28e6 3.28e6 3.28e6 3.28e6 3.28e6 3.28e6 3.28e6 3.28e6 3.28e6
##  2 Albania 4.00e5 4.02e5 4.04e5 4.05e5 4.07e5 4.09e5 4.11e5 4.13e5 4.14e5 4.16e5
##  3 Algeria 2.50e6 2.51e6 2.52e6 2.53e6 2.54e6 2.55e6 2.56e6 2.56e6 2.57e6 2.58e6
##  4 Andorra 2.65e3 2.65e3 2.65e3 2.65e3 2.65e3 2.65e3 2.65e3 2.65e3 2.65e3 2.65e3
##  5 Angola  1.57e6 1.57e6 1.57e6 1.57e6 1.57e6 1.57e6 1.57e6 1.57e6 1.57e6 1.57e6
##  6 Antigu… 3.70e4 3.70e4 3.70e4 3.70e4 3.70e4 3.70e4 3.70e4 3.70e4 3.70e4 3.70e4
##  7 Argent… 5.34e5 5.20e5 5.06e5 4.92e5 4.79e5 4.66e5 4.53e5 4.41e5 4.29e5 4.17e5
##  8 Armenia 4.13e5 4.13e5 4.13e5 4.13e5 4.13e5 4.13e5 4.13e5 4.13e5 4.13e5 4.13e5
##  9 Austra… 2.00e5 2.05e5 2.11e5 2.16e5 2.22e5 2.27e5 2.33e5 2.39e5 2.46e5 2.52e5
## 10 Austria 3.00e6 3.02e6 3.04e6 3.05e6 3.07e6 3.09e6 3.11e6 3.12e6 3.14e6 3.16e6
## # … with 185 more rows, and 291 more variables: 1810 <dbl>, 1811 <dbl>,
## #   1812 <dbl>, 1813 <dbl>, 1814 <dbl>, 1815 <dbl>, 1816 <dbl>, 1817 <dbl>,
## #   1818 <dbl>, 1819 <dbl>, 1820 <dbl>, 1821 <dbl>, 1822 <dbl>, 1823 <dbl>,
## #   1824 <dbl>, 1825 <dbl>, 1826 <dbl>, 1827 <dbl>, 1828 <dbl>, 1829 <dbl>,
## #   1830 <dbl>, 1831 <dbl>, 1832 <dbl>, 1833 <dbl>, 1834 <dbl>, 1835 <dbl>,
## #   1836 <dbl>, 1837 <dbl>, 1838 <dbl>, 1839 <dbl>, 1840 <dbl>, 1841 <dbl>,
## #   1842 <dbl>, 1843 <dbl>, 1844 <dbl>, 1845 <dbl>, 1846 <dbl>, 1847 <dbl>,
## #   1848 <dbl>, 1849 <dbl>, 1850 <dbl>, 1851 <dbl>, 1852 <dbl>, 1853 <dbl>,
## #   1854 <dbl>, 1855 <dbl>, 1856 <dbl>, 1857 <dbl>, 1858 <dbl>, 1859 <dbl>,
…
```r
income
```

```
## # A tibble: 193 x 242
##    country `1800` `1801` `1802` `1803` `1804` `1805` `1806` `1807` `1808` `1809`
##    <chr>    <dbl>  <dbl>  <dbl>  <dbl>  <dbl>  <dbl>  <dbl>  <dbl>  <dbl>  <dbl>
##  1 Afghan…    603    603    603    603    603    603    603    603    603    603
##  2 Albania    667    667    667    667    667    668    668    668    668    668
##  3 Algeria    715    716    717    718    719    720    721    722    723    724
##  4 Andorra   1200   1200   1200   1200   1210   1210   1210   1210   1220   1220
##  5 Angola     618    620    623    626    628    631    634    637    640    642
##  6 Antigu…    757    757    757    757    757    757    757    758    758    758
##  7 Argent…   1640   1640   1650   1650   1660   1660   1670   1680   1680   1690
##  8 Armenia    514    514    514    514    514    514    514    514    514    514
##  9 Austra…    817    822    826    831    836    841    845    850    855    860
## 10 Austria   1850   1850   1860   1870   1880   1880   1890   1900   1910   1920
## # … with 183 more rows, and 231 more variables: 1810 <dbl>, 1811 <dbl>,
## #   1812 <dbl>, 1813 <dbl>, 1814 <dbl>, 1815 <dbl>, 1816 <dbl>, 1817 <dbl>,
## #   1818 <dbl>, 1819 <dbl>, 1820 <dbl>, 1821 <dbl>, 1822 <dbl>, 1823 <dbl>,
## #   1824 <dbl>, 1825 <dbl>, 1826 <dbl>, 1827 <dbl>, 1828 <dbl>, 1829 <dbl>,
## #   1830 <dbl>, 1831 <dbl>, 1832 <dbl>, 1833 <dbl>, 1834 <dbl>, 1835 <dbl>,
## #   1836 <dbl>, 1837 <dbl>, 1838 <dbl>, 1839 <dbl>, 1840 <dbl>, 1841 <dbl>,
## #   1842 <dbl>, 1843 <dbl>, 1844 <dbl>, 1845 <dbl>, 1846 <dbl>, 1847 <dbl>,
## #   1848 <dbl>, 1849 <dbl>, 1850 <dbl>, 1851 <dbl>, 1852 <dbl>, 1853 <dbl>,
## #   1854 <dbl>, 1855 <dbl>, 1856 <dbl>, 1857 <dbl>, 1858 <dbl>, 1859 <dbl>,
…
```r
life_expectancy
```

```
## # A tibble: 187 x 302
##    country `1800` `1801` `1802` `1803` `1804` `1805` `1806` `1807` `1808` `1809`
##    <chr>    <dbl>  <dbl>  <dbl>  <dbl>  <dbl>  <dbl>  <dbl>  <dbl>  <dbl>  <dbl>
##  1 Afghan…   28.2   28.2   28.2   28.2   28.2   28.2   28.1   28.1   28.1   28.1
##  2 Albania   35.4   35.4   35.4   35.4   35.4   35.4   35.4   35.4   35.4   35.4
##  3 Algeria   28.8   28.8   28.8   28.8   28.8   28.8   28.8   28.8   28.8   28.8
##  4 Andorra   NA     NA     NA     NA     NA     NA     NA     NA     NA     NA  
##  5 Angola    27     27     27     27     27     27     27     27     27     27  
##  6 Antigu…   33.5   33.5   33.5   33.5   33.5   33.5   33.5   33.5   33.5   33.5
##  7 Argent…   33.2   33.2   33.2   33.2   33.2   33.2   33.2   33.2   33.2   33.2
##  8 Armenia   34     34     34     34     34     34     34     34     34     34  
##  9 Austra…   34     34     34     34     34     34     34     34     34     34  
## 10 Austria   34.4   34.4   34.4   34.4   34.4   34.4   34.4   34.4   34.4   34.4
## # … with 177 more rows, and 291 more variables: 1810 <dbl>, 1811 <dbl>,
## #   1812 <dbl>, 1813 <dbl>, 1814 <dbl>, 1815 <dbl>, 1816 <dbl>, 1817 <dbl>,
## #   1818 <dbl>, 1819 <dbl>, 1820 <dbl>, 1821 <dbl>, 1822 <dbl>, 1823 <dbl>,
## #   1824 <dbl>, 1825 <dbl>, 1826 <dbl>, 1827 <dbl>, 1828 <dbl>, 1829 <dbl>,
## #   1830 <dbl>, 1831 <dbl>, 1832 <dbl>, 1833 <dbl>, 1834 <dbl>, 1835 <dbl>,
## #   1836 <dbl>, 1837 <dbl>, 1838 <dbl>, 1839 <dbl>, 1840 <dbl>, 1841 <dbl>,
## #   1842 <dbl>, 1843 <dbl>, 1844 <dbl>, 1845 <dbl>, 1846 <dbl>, 1847 <dbl>,
## #   1848 <dbl>, 1849 <dbl>, 1850 <dbl>, 1851 <dbl>, 1852 <dbl>, 1853 <dbl>,
## #   1854 <dbl>, 1855 <dbl>, 1856 <dbl>, 1857 <dbl>, 1858 <dbl>, 1859 <dbl>,
…
3. (2 points) Let's limit the data to the past 100 years (1920-2020). For these years, which country has the highest life expectancy? How about the lowest life expectancy?  

Highest

```r
life_expectancy_long %>% 
  filter(year>=1920 | year <=2020) %>% 
  group_by(country) %>% 
  summarise(avg_life_expectancy=mean(life_expectancy)) %>% 
  arrange(desc(avg_life_expectancy))
```

```
## # A tibble: 187 x 2
##    country        avg_life_expectancy
##    <chr>                        <dbl>
##  1 Andorra                       79.8
##  2 Dominica                      73.0
##  3 Norway                        67.2
##  4 Sweden                        66.2
##  5 Denmark                       65.3
##  6 Switzerland                   64.7
##  7 Canada                        64.5
##  8 Netherlands                   64.5
##  9 United Kingdom                64.1
## 10 Iceland                       63.7
## # … with 177 more rows
```

Lowest

```r
life_expectancy_long %>% 
  filter(year>=1920 | year <=2020) %>% 
  group_by(country) %>% 
  summarise(avg_life_expectancy=mean(life_expectancy)) %>% 
  arrange((avg_life_expectancy))
```

```
## # A tibble: 187 x 2
##    country                  avg_life_expectancy
##    <chr>                                  <dbl>
##  1 Central African Republic                42.6
##  2 Yemen                                   43.6
##  3 Mali                                    43.8
##  4 Sierra Leone                            43.9
##  5 South Sudan                             44.1
##  6 Uganda                                  44.7
##  7 Kiribati                                44.8
##  8 Afghanistan                             45.1
##  9 Somalia                                 45.1
## 10 Vanuatu                                 45.3
## # … with 177 more rows
```
…
```r
income_100 <- income_long %>% 
  filter(year>=1920 & year <=2020)
```


```r
gapminder_join <- inner_join(life_expectancy_100, population_100, by= c("country", "year"))
gapminder_join <- inner_join(gapminder_join, income_100, by= c("country", "year"))
gapminder_join
```

```
## # A tibble: 18,728 x 5
##    country     year  life_expectancy population income
##    <chr>       <chr>           <dbl>      <dbl>  <dbl>
##  1 Afghanistan 1920             30.6   10600000   1490
##  2 Afghanistan 1921             30.7   10500000   1520
##  3 Afghanistan 1922             30.8   10300000   1550
##  4 Afghanistan 1923             30.8    9710000   1570
##  5 Afghanistan 1924             30.9    9200000   1600
##  6 Afghanistan 1925             31      8720000   1630
##  7 Afghanistan 1926             31      8260000   1650
##  8 Afghanistan 1927             31.1    7830000   1680
##  9 Afghanistan 1928             31.1    7420000   1710
## 10 Afghanistan 1929             31.2    7100000   1740
## # … with 18,718 more rows
```
…
