…
```
##  [1] "name"       "Gender"     "Eye color"  "Race"       "Hair color"
##  [6] "Height"     "Publisher"  "Skin color" "Alignment"  "Weight"
```

## Data tidy
1. Some of the names used in the `superhero_info` data are problematic so you should rename them here.  

```r
corrected_superhero_info <- rename(superhero_info, gender = "Gender", eye_color = "Eye color", race = "Race", hair_color = "Hair color", height = "Height", publisher = "Publisher", skin_color = "Skin color", alignment = "Alignment", weight = "Weight")
corrected_superhero_info
```

```
## # A tibble: 734 x 10
##    name  gender eye_color race  hair_color height publisher skin_color alignment
##    <chr> <chr>  <chr>     <chr> <chr>       <dbl> <chr>     <chr>      <chr>    
##  1 A-Bo~ Male   yellow    Human No Hair       203 Marvel C~ <NA>       good     
##  2 Abe ~ Male   blue      Icth~ No Hair       191 Dark Hor~ blue       good     
##  3 Abin~ Male   blue      Unga~ No Hair       185 DC Comics red        good     
##  4 Abom~ Male   green     Huma~ No Hair       203 Marvel C~ <NA>       bad      
##  5 Abra~ Male   blue      Cosm~ Black          NA Marvel C~ <NA>       bad      
##  6 Abso~ Male   blue      Human No Hair       193 Marvel C~ <NA>       bad      
##  7 Adam~ Male   blue      <NA>  Blond          NA NBC - He~ <NA>       good     
##  8 Adam~ Male   blue      Human Blond         185 DC Comics <NA>       good     
##  9 Agen~ Female blue      <NA>  Blond         173 Marvel C~ <NA>       good     
## 10 Agen~ Male   brown     Human Brown         178 Marvel C~ <NA>       good     
## # ... with 724 more rows, and 1 more variable: weight <dbl>
```
…
2. Notice that we have some neutral superheros! Who are they?

```r
filter(corrected_superhero_info, alignment == "neutral")
```

```
## # A tibble: 24 x 10
##    name  gender eye_color race  hair_color height publisher skin_color alignment
##    <chr> <chr>  <chr>     <chr> <chr>       <dbl> <chr>     <chr>      <chr>    
##  1 Biza~ Male   black     Biza~ Black         191 DC Comics white      neutral  
##  2 Blac~ Male   <NA>      God ~ <NA>           NA DC Comics <NA>       neutral  
##  3 Capt~ Male   brown     Human Brown          NA DC Comics <NA>       neutral  
##  4 Copy~ Female red       Muta~ White         183 Marvel C~ blue       neutral  
##  5 Dead~ Male   brown     Muta~ No Hair       188 Marvel C~ <NA>       neutral  
##  6 Deat~ Male   blue      Human White         193 DC Comics <NA>       neutral  
##  7 Etri~ Male   red       Demon No Hair       193 DC Comics yellow     neutral  
##  8 Gala~ Male   black     Cosm~ Black         876 Marvel C~ <NA>       neutral  
##  9 Glad~ Male   blue      Stro~ Blue          198 Marvel C~ purple     neutral  
## 10 Indi~ Female <NA>      Alien Purple         NA DC Comics <NA>       neutral  
## # ... with 14 more rows, and 1 more variable: weight <dbl>
```

## `superhero_info`
3. Let's say we are only interested in the variables name, alignment, and "race". How would you isolate these variables from `superhero_info`?

```r
select(corrected_superhero_info, name, alignment, race)
```

```
## # A tibble: 734 x 3
##    name          alignment race             
##    <chr>         <chr>     <chr>            
##  1 A-Bomb        good      Human            
##  2 Abe Sapien    good      Icthyo Sapien    
##  3 Abin Sur      good      Ungaran          
##  4 Abomination   bad       Human / Radiation
##  5 Abraxas       bad       Cosmic Entity    
##  6 Absorbing Man bad       Human            
##  7 Adam Monroe   good      <NA>             
##  8 Adam Strange  good      Human            
##  9 Agent 13      good      <NA>             
## 10 Agent Bob     good      Human            
## # ... with 724 more rows
```

## Not Human
4. List all of the superheros that are not human.

```r
filter(corrected_superhero_info, race != "Human")
```

```
## # A tibble: 222 x 10
##    name  gender eye_color race  hair_color height publisher skin_color alignment
##    <chr> <chr>  <chr>     <chr> <chr>       <dbl> <chr>     <chr>      <chr>    
##  1 Abe ~ Male   blue      Icth~ No Hair       191 Dark Hor~ blue       good     
##  2 Abin~ Male   blue      Unga~ No Hair       185 DC Comics red        good     
##  3 Abom~ Male   green     Huma~ No Hair       203 Marvel C~ <NA>       bad      
##  4 Abra~ Male   blue      Cosm~ Black          NA Marvel C~ <NA>       bad      
##  5 Ajax  Male   brown     Cybo~ Black         193 Marvel C~ <NA>       bad      
##  6 Alien Male   <NA>      Xeno~ No Hair       244 Dark Hor~ black      bad      
##  7 Amazo Male   red       Andr~ <NA>          257 DC Comics <NA>       bad      
##  8 Angel Male   <NA>      Vamp~ <NA>           NA Dark Hor~ <NA>       good     
##  9 Ange~ Female yellow    Muta~ Black         165 Marvel C~ <NA>       good     
## 10 Anti~ Male   yellow    God ~ No Hair        61 DC Comics <NA>       bad      
## # ... with 212 more rows, and 1 more variable: weight <dbl>
```
…
8. Among the bad guys, who are the male humans over 200 inches in height?

```r
bad_guys %>%
  filter(height > 200) %>%
  arrange(height)
```

```
## # A tibble: 25 x 10
##    name  gender eye_color race  hair_color height publisher skin_color alignment
##    <chr> <chr>  <chr>     <chr> <chr>       <dbl> <chr>     <chr>      <chr>    
##  1 Doct~ Male   brown     Human Brown         201 Marvel C~ <NA>       bad      
##  2 Doct~ Male   brown     <NA>  Brown         201 Marvel C~ <NA>       bad      
##  3 King~ Male   blue      Human No Hair       201 Marvel C~ <NA>       bad      
##  4 Than~ Male   red       Eter~ No Hair       201 Marvel C~ purple     bad      
##  5 Abom~ Male   green     Huma~ No Hair       203 Marvel C~ <NA>       bad      
##  6 Bane  Male   <NA>      Human <NA>          203 DC Comics <NA>       bad      
##  7 Liza~ Male   red       Human No Hair       203 Marvel C~ <NA>       bad      
##  8 Ultr~ Male   red       Andr~ <NA>          206 Marvel C~ silver     bad      
##  9 Fren~ Female brown     <NA>  Black         211 Marvel C~ <NA>       bad      
## 10 Omeg~ Male   red       <NA>  Blond         211 Marvel C~ <NA>       bad      
## # ... with 15 more rows, and 1 more variable: weight <dbl>
```
…
## Height to Weight Ratio
13. It's easy to be strong when you are heavy and tall, but who is heavy and short? Which superheros have the lowest height to weight ratio?

```r
corrected_superhero_info %>%
  mutate(hw_ratio = height/weight) %>%
  arrange(hw_ratio)
```

```
## # A tibble: 734 x 11
##    name  gender eye_color race  hair_color height publisher skin_color alignment
##    <chr> <chr>  <chr>     <chr> <chr>       <dbl> <chr>     <chr>      <chr>    
##  1 Giga~ Female green     <NA>  Red          62.5 DC Comics <NA>       bad      
##  2 Utga~ Male   blue      Fros~ White        15.2 Marvel C~ <NA>       bad      
##  3 Dark~ Male   red       New ~ No Hair     267   DC Comics grey       bad      
##  4 Jugg~ Male   blue      Human Red         287   Marvel C~ <NA>       neutral  
##  5 Red ~ Male   yellow    Huma~ Black       213   Marvel C~ red        neutral  
##  6 Sasq~ Male   red       <NA>  Orange      305   Marvel C~ <NA>       good     
##  7 Hulk  Male   green     Huma~ Green       244   Marvel C~ green      good     
##  8 Bloo~ Female blue      Human Brown       218   Marvel C~ <NA>       bad      
##  9 Than~ Male   red       Eter~ No Hair     201   Marvel C~ purple     bad      
## 10 A-Bo~ Male   yellow    Human No Hair     203   Marvel C~ <NA>       good     
## # ... with 724 more rows, and 2 more variables: weight <dbl>, hw_ratio <dbl>
```
…
## `kinesis`
15. We are only interested in the superheros that do some kind of "kinesis". How would we isolate them from the `superhero_powers` data?



```r
superhero_powers %>%
  select(hero_names, contains("kinesis")) %>% 
  filter_all(any_vars(.==TRUE))
```

```
## # A tibble: 112 x 10
##    hero_names cryokinesis electrokinesis telekinesis hyperkinesis hypnokinesis
##    <chr>      <lgl>       <lgl>          <lgl>       <lgl>        <lgl>       
##  1 Alan Scott FALSE       FALSE          FALSE       FALSE        TRUE        
##  2 Amazo      TRUE        FALSE          FALSE       FALSE        FALSE       
##  3 Apocalypse FALSE       FALSE          TRUE        FALSE        FALSE       
##  4 Aqualad    TRUE        FALSE          FALSE       FALSE        FALSE       
##  5 Beyonder   FALSE       FALSE          TRUE        FALSE        FALSE       
##  6 Bizarro    TRUE        FALSE          FALSE       FALSE        TRUE        
##  7 Black Abb~ FALSE       FALSE          TRUE        FALSE        FALSE       
##  8 Black Adam FALSE       FALSE          TRUE        FALSE        FALSE       
##  9 Black Lig~ FALSE       TRUE           FALSE       FALSE        FALSE       
## 10 Black Mam~ FALSE       FALSE          FALSE       FALSE        TRUE        
## # ... with 102 more rows, and 4 more variables: thirstokinesis <lgl>,
## #   biokinesis <lgl>, terrakinesis <lgl>, vitakinesis <lgl>
```
…
